Problem Set 3 - Basic Regression
…
Insert your answer here. total variance = 0.19

Q8 (5 points): How far off, on average, will your estimate of attack be based on your model? (Hint: which one of the values from get_regression_summaries() gives you that information?)

Insert your answer here. On average, my estimate of attack will be off by 28.

Q9 (5 points): You will notice that theres one outlier that has an exceptionally large value for defense and a very low value for attack. Whats the name of that pokemon character?

# Insert your code here
max_def <- pokemon %>% 
  arrange(desc(defense))
max_def

## # A tibble: 800 x 13
##    id_number name  type1 type2 total    hp attack defense sp_attack sp_defense
##        <dbl> <chr> <chr> <chr> <dbl> <dbl>  <dbl>   <dbl>     <dbl>      <dbl>
##  1       208 Stee~ Steel Grou~   610    75    125     230        55         95
##  2       213 Shuc~ Bug   Rock    505    20     10     230        10        230
##  3       306 Aggr~ Steel <NA>    630    70    140     230        60         80
##  4       208 Stee~ Steel Grou~   510    75     85     200        55         65
##  5       377 Regi~ Rock  <NA>    580    80    100     200        50        100
##  6       713 Aval~ Ice   <NA>    514    95    117     184        44         46
##  7        80 Slow~ Water Psyc~   590    95     75     180       130         80
##  8        91 Cloy~ Water Ice     525    50     95     180        85         45
##  9       306 Aggr~ Steel Rock    530    70    110     180        60         60
## 10       411 Bast~ Rock  Steel   495    60     52     168        47        138
## # ... with 790 more rows, and 3 more variables: speed <dbl>, generation <dbl>,
## #   legendary <lgl>
…
