SI 544 FA 2020 Problem Set 1
…
Answer: 196 different countries

What are the earliest and latest dates in the country-level data set?

# Type your code here
all_countries %>%
   arrange(date)

## # A tibble: 48,220 x 39
## # Groups:   id [196]
##    iso_alpha_3 id    date       tests confirmed recovered deaths  hosp  vent
##    <chr>       <chr> <date>     <int>     <int>     <int>  <int> <int> <int>
##  1 THA         THA   2020-01-01    NA         0         0      0    NA    NA
##  2 THA         THA   2020-01-02    NA         0         0      0    NA    NA
##  3 CHN         CHN   2020-01-03    NA         0        NA      0    NA    NA
##  4 THA         THA   2020-01-03    NA         0         0      0    NA    NA
##  5 CHN         CHN   2020-01-04    NA         1        NA      0    NA    NA
##  6 THA         THA   2020-01-04    NA         0         0      0    NA    NA
##  7 CHN         CHN   2020-01-05    NA         1        NA      0    NA    NA
##  8 THA         THA   2020-01-05    NA         0         0      0    NA    NA
##  9 CHN         CHN   2020-01-06    NA         4        NA      0    NA    NA
## 10 THA         THA   2020-01-06    NA         0         0      0    NA    NA
## # ... with 48,210 more rows, and 30 more variables: icu <int>,
## #   population <int>, school_closing <int>, workplace_closing <int>,
## #   cancel_events <int>, gatherings_restrictions <int>,
## #   transport_closing <int>, stay_home_restrictions <int>,
## #   internal_movement_restrictions <int>,
## #   international_movement_restrictions <int>, information_campaigns <int>,
## #   testing_policy <int>, contact_tracing <int>, stringency_index <dbl>,
## #   iso_alpha_2 <chr>, iso_numeric <int>, currency <chr>,
## #   administrative_area_level <int>, administrative_area_level_1 <chr>,
## #   administrative_area_level_2 <lgl>, administrative_area_level_3 <lgl>,
## #   latitude <dbl>, longitude <dbl>, key <lgl>, key_apple_mobility <chr>,
## #   key_google_mobility <chr>, gdp <dbl>, hosp_beds <dbl>, diab_prev <dbl>,
## #   water_sanitation <dbl>

all_countries %>%
   arrange(desc(date))

## # A tibble: 48,220 x 39
## # Groups:   id [196]
##    iso_alpha_3 id    date         tests confirmed recovered deaths  hosp  vent
##    <chr>       <chr> <date>       <int>     <int>     <int>  <int> <int> <int>
##  1 AUS         AUS   2020-09-24  7.39e6     26983     24137    816    81     7
##  2 AUT         AUT   2020-09-24 NA             NA     31661    765    NA    NA
##  3 CAC         CAC   2020-09-24 NA            149       149      0    NA    NA
##  4 CHL         CHL   2020-09-24  3.11e6    451634        NA  12469  3428    NA
##  5 CHN         CHN   2020-09-24 NA          90918        NA   4745    NA    NA
##  6 IRL         IRL   2020-09-24  1.11e6        NA        NA     NA    94    NA
##  7 ITA         ITA   2020-09-24  1.08e7    304323    221762  35781  2977    NA
##  8 JPN         JPN   2020-09-24  1.89e6     80505     72522   1536  5989    NA
##  9 LVA         LVA   2020-09-24  3.04e5      1594        NA     36    NA    NA
## 10 PRT         PRT   2020-09-24 NA          71156     46676   1931   588    NA
## # ... with 48,210 more rows, and 30 more variables: icu <int>,
## #   population <int>, school_closing <int>, workplace_closing <int>,
## #   cancel_events <int>, gatherings_restrictions <int>,
## #   transport_closing <int>, stay_home_restrictions <int>,
## #   internal_movement_restrictions <int>,
## #   international_movement_restrictions <int>, information_campaigns <int>,
## #   testing_policy <int>, contact_tracing <int>, stringency_index <dbl>,
## #   iso_alpha_2 <chr>, iso_numeric <int>, currency <chr>,
## #   administrative_area_level <int>, administrative_area_level_1 <chr>,
…
Use the country-level data set to create a scatterplot of the total number of recoveries (on the y-axis) vs.the maximum number of hospital beds per 1000 people (on the x-axis) in that country. What does the plot tell you?

# Type your code here

dat_filter <- all_countries %>%
   filter(date == "2020-09-20") %>%
   select(id, date, recovered, administrative_area_level_1, hosp_beds) %>%
   summarise(max_bed=replace_na(max(hosp_beds), 0), total_rec=sum(recovered, na.rm = TRUE))

## `summarise()` ungrouping output (override with `.groups` argument)

dat_filter

## # A tibble: 196 x 3
##    id    max_bed total_rec
##    <chr>   <dbl>     <int>
##  1 AFG       0.5     32576
##  2 AGO       0        1445
##  3 ALB       2.9      6940
##  4 AND       0        1164
##  5 ARE       1.2     74273
##  6 ARG       5      488231
##  7 ARM       4.2     42608
##  8 ASM       0           0
##  9 ATG       3.8        92
## 10 AUS       3.8     23870
## # ... with 186 more rows
…
Note: you may not use SE.ADT.LITR.ZS as your chosen indicator; choose something else!

Answer: I selected diabetes prevalence as a new indicator for the x-axis. I chose this indicator for two reasons: 1) its a known comordibity of COVID; 2) it is a non-communicable disease associated with increased rates of sedentary lifestyle common in industrialized and developing nations. With this plot I am looking to see if nations with higher rates of diabetes is tied to reduced recovery rates.

This indicator shows diabetes prevalence as a percentage of population between the ages of 20-79

# Type your code here

new_dat_filter <- all_countries %>%
   filter(date == "2020-09-21") %>%
   select(id, recovered, diab_prev)
   #summarise(total_rec=sum(recovered, na.rm = TRUE))
new_dat_filter

## # A tibble: 196 x 3
## # Groups:   id [196]
##    id    recovered diab_prev
##    <chr>     <int>     <dbl>
##  1 AFG       32576       9.2
##  2 AGO        1449       4.5
##  3 ALB        6995       9  
##  4 AND        1199       7.7
##  5 ARE       75086      16.3
##  6 ARG      508563       5.9
##  7 ARM       42637       6.1
##  8 ASM          NA      NA  
##  9 ATG          92      13.1
## 10 AUS       23965       5.6
## # ... with 186 more rows
…
all_tests <- sum(can_dat_filter$total_tests)
all_tests

## [1] 6618405

Answer: 6,618,405 tests

Which Canadian province has conducted the most tests to date?

# Type your code here
can_province <- canada %>%
   arrange(desc(tests))
can_province

## # A tibble: 2,602 x 46
## # Groups:   id [13]
##    date       key_google_mobi~ id     tests confirmed recovered deaths  hosp
##    <date>     <chr>            <chr>  <int>     <int>     <int>  <int> <int>
##  1 2020-09-23 CA, Ontario      83fc~ 3.53e6     48087     41600   2835    NA
##  2 2020-09-22 CA, Ontario      83fc~ 3.50e6     47752     41342   2832    NA
##  3 2020-09-21 CA, Ontario      83fc~ 3.46e6     47274     41146   2829    NA
##  4 2020-09-20 CA, Ontario      83fc~ 3.43e6     46849     40968   2827    NA
##  5 2020-09-19 CA, Ontario      83fc~ 3.39e6     46484     40777   2826    NA
##  6 2020-09-18 CA, Ontario      83fc~ 3.36e6     46077     40600   2825    NA
##  7 2020-09-17 CA, Ontario      83fc~ 3.32e6     45676     40424   2825    NA
##  8 2020-09-16 CA, Ontario      83fc~ 3.29e6     45383     40245   2822    NA
##  9 2020-09-15 CA, Ontario      83fc~ 3.26e6     45068     40091   2820    NA
## 10 2020-09-14 CA, Ontario      83fc~ 3.23e6     44817     39974   2816    NA
## # ... with 2,592 more rows, and 38 more variables: vent <int>, icu <int>,
## #   population <dbl>, school_closing <int>, workplace_closing <int>,
## #   cancel_events <int>, gatherings_restrictions <int>,
## #   transport_closing <int>, stay_home_restrictions <int>,
## #   internal_movement_restrictions <int>,
## #   international_movement_restrictions <int>, information_campaigns <int>,
## #   testing_policy <int>, contact_tracing <int>, stringency_index <dbl>,
## #   iso_alpha_3 <chr>, iso_alpha_2 <chr>, iso_numeric <int>, currency <chr>,
## #   administrative_area_level <int>, administrative_area_level_1 <chr>,
…
Ontario and British Columbia are two provinces in Canada. Create linegraphs that show how the percent change from baseline looks for each of the six types of locations (i.e.retail and recreation, grocery and pharmacy, parks, transit stations, workplaces, and residential) from the GMR for Ontario. You can experiment with creating one linegraph per location type or, alternatively, you can create multiple lines on one linegraph. Repeat this for British Columbia.

# Type your code here
ontario <- canada %>%
   select(date, administrative_area_level_2, retail_and_recreation_percent_change_from_baseline, grocery_and_pharmacy_percent_change_from_baseline, parks_percent_change_from_baseline, transit_stations_percent_change_from_baseline, workplaces_percent_change_from_baseline, residential_percent_change_from_baseline) %>%
   filter(id == "83fc0fa9")

## Adding missing grouping variables: `id`

ontario

## # A tibble: 213 x 9
## # Groups:   id [1]
##    id    date       administrative_~ retail_and_recr~ grocery_and_pha~
##    <chr> <date>     <chr>                       <int>            <int>
##  1 83fc~ 2020-01-31 Ontario                        NA               NA
##  2 83fc~ 2020-02-08 Ontario                        NA               NA
##  3 83fc~ 2020-02-16 Ontario                        16               13
##  4 83fc~ 2020-02-21 Ontario                         1               -3
##  5 83fc~ 2020-02-24 Ontario                         2                2
##  6 83fc~ 2020-02-25 Ontario                         1                7
##  7 83fc~ 2020-02-26 Ontario                        -8               -5
##  8 83fc~ 2020-02-27 Ontario                       -13              -12
##  9 83fc~ 2020-02-29 Ontario                         5                6
## 10 83fc~ 2020-03-01 Ontario                        11               10
## # ... with 203 more rows, and 4 more variables:
## #   parks_percent_change_from_baseline <int>,
## #   transit_stations_percent_change_from_baseline <int>,
## #   workplaces_percent_change_from_baseline <int>,
## #   residential_percent_change_from_baseline <int>

bc <- canada %>%
   select(date, administrative_area_level_2, retail_and_recreation_percent_change_from_baseline, grocery_and_pharmacy_percent_change_from_baseline, parks_percent_change_from_baseline, transit_stations_percent_change_from_baseline, workplaces_percent_change_from_baseline, residential_percent_change_from_baseline) %>%
   filter(id == "c229681f")

## Adding missing grouping variables: `id`

bc

## # A tibble: 213 x 9
## # Groups:   id [1]
##    id    date       administrative_~ retail_and_recr~ grocery_and_pha~
##    <chr> <date>     <chr>                       <int>            <int>
##  1 c229~ 2020-01-31 British Columbia               NA               NA
##  2 c229~ 2020-02-08 British Columbia               NA               NA
##  3 c229~ 2020-02-16 British Columbia               12                2
##  4 c229~ 2020-02-21 British Columbia                6                3
##  5 c229~ 2020-02-24 British Columbia                1                4
##  6 c229~ 2020-02-25 British Columbia                2                3
##  7 c229~ 2020-02-26 British Columbia                2                4
##  8 c229~ 2020-02-27 British Columbia                2                4
##  9 c229~ 2020-02-29 British Columbia                7                8
## 10 c229~ 2020-03-01 British Columbia                7                7
## # ... with 203 more rows, and 4 more variables:
## #   parks_percent_change_from_baseline <int>,
## #   transit_stations_percent_change_from_baseline <int>,
## #   workplaces_percent_change_from_baseline <int>,
## #   residential_percent_change_from_baseline <int>
…
