Problem Set 2 - Visualizations and Tidy Data
…
Q5 Response:

I couldnt quite tell from the boxplot I made. However, this line graph seems to indicate that a higher max player count has a correlation to lower weight.

Question 6 (15 points)

Create a plot showing the number of board games released by year. What trends do you notice?

 q6 <- clean_df %>% 
  group_by(year) %>% 
  count(year) %>% 
  rename(num_games = n)
 q6

## # A tibble: 104 x 2
## # Groups:   year [104]
##     year num_games
##    <dbl>     <int>
##  1 -3000         1
##  2 -2200         1
##  3     0        11
##  4   400         1
##  5   550         1
##  6   700         1
##  7   762         1
##  8  1000         1
##  9  1425         1
## 10  1430         1
## # ... with 94 more rows
…
