Discussion section 03
…
Total number of confirmed cases for each state

For this part, we will get the total number of confirmed cases for each state.

#get the total number of confirmed cases for each state
State_wise_cases_1 = US_statelevel_cases %>%
  group_by(administrative_area_level_2) %>% #group by states
  summarize(total_confirmed = max(confirmed, na.rm = TRUE)) #each day's confirmed cases represent the cumulative count, get the max confirmed count for each state  

## `summarise()` ungrouping output (override with `.groups` argument)

State_wise_cases_1

## # A tibble: 56 x 2
##    administrative_area_level_2 total_confirmed
##    <chr>                                 <int>
##  1 Alabama                              147153
##  2 Alaska                                 7941
##  3 American Samoa                            0
##  4 Arizona                              215284
##  5 Arkansas                              77963
##  6 California                           787470
##  7 Colorado                              66053
##  8 Connecticut                           56315
##  9 Delaware                              19830
## 10 District of Columbia                  15050
## # ... with 46 more rows

Exercise 1: filter by latest date (max date) and generate the total number of confirmed cases for each state

the_latest_date = max(US_statelevel_cases$date)

#you can also get the same data by filtering the data for the latest date. Try to write the code for it.
US_statelevel_cases %>%
  filter(date == max(date)) %>%
  group_by(administrative_area_level_2) %>%
  summarise(total_confirmed = confirmed)

## `summarise()` ungrouping output (override with `.groups` argument)

## # A tibble: 56 x 2
##    administrative_area_level_2 total_confirmed
##    <chr>                                 <int>
##  1 Alabama                              147153
##  2 Alaska                                 7941
##  3 American Samoa                            0
##  4 Arizona                              215284
##  5 Arkansas                              77963
##  6 California                           787470
##  7 Colorado                              66053
##  8 Connecticut                           56315
##  9 Delaware                              19830
## 10 District of Columbia                  15050
## # ... with 46 more rows
…
